{
  "type": "object",
  "title": "extractor configuration",
  "required": [
    "base_url",
    "project_token",
    "key_id",
    "#api_secret",
    "loading_options",
    "endpoints"
  ],
  "properties": {
    "base_url": {
      "type": "string",
      "title": "API Base URL",
      "description": "The domain URL of your Exponea instance. E.g. myapp-exponea.com",
      "propertyOrder": 50
    },
    "project_token": {
      "type": "string",
      "title": "Project Token",
      "description": "Your Exponea project Token. Found in the Exponea UI: Settings -> Project settings -> General project settings",
      "propertyOrder": 100
    },
    "#api_secret": {
      "type": "string",
      "title": "API Secret",
      "format": "password",
      "description": "The Exponea API Secret",
      "propertyOrder": 200
    },
    "key_id": {
      "type": "string",
      "title": "API Key ID",
      "format": "key_id",
      "description": "The Exponea API Key ID",
      "propertyOrder": 210
    },
    "endpoints": {
      "type": "object",
      "title": "Endpoints",
      "required": [
        "customers",
        "events"
      ],
      "properties": {
        "customers": {
          "type": "boolean",
          "title": "Customers",
          "format": "checkbox",
          "default": true,
          "propertyOrder": 45
        },
        "events": {
          "type": "array",
          "items": {
            "type": "object",
            "title": "Setup",
            "required": [
              "use_input_table",
              "types"
            ],
            "properties": {
              "types": {
                "type": "string",
                "title": "Event Types",
                "format": "textarea",
                "options": {
                  "input_height": "100px",
                  "dependencies": {
                    "use_input_table": false
                  }
                },
                "description": "Comma separated list of required event types.",
                "uniqueItems": true,
                "propertyOrder": 700
              },
              "use_input_table": {
                "type": "boolean",
                "format": "checkbox",
                "title": "Use input table",
                "description": "Use input table to filter event_types and customers. Otherwise, all customers are used.",
                "uniqueItems": true,
                "propertyOrder": 360
              }
            }
          },
          "title": "Events",
          "maxItems": 1,
          "description": "Download Events.",
          "propertyOrder": 4000
        }
      },
      "propertyOrder": 500
    },
    "loading_options": {
      "type": "object",
      "title": "Loading Options",
      "format": "grid",
      "required": [
        "incremental_output"
      ],
      "properties": {
        "incremental_output": {
          "enum": [
            0,
            1
          ],
          "type": "number",
          "title": "Load type",
          "default": 1,
          "options": {
            "enum_titles": [
              "Full Load",
              "Incremental Update"
            ]
          },
          "description": "If set to Incremental update, the result tables will be updated based on primary key. Full load overwrites the destination table each time. NOTE: If you wish to remove deleted records, this needs to be set to Full load and the Period from attribute empty.",
          "propertyOrder": 450
        }
      },
      "propertyOrder": 400
    }
  }
}